…
```yaml
type: FullSlide
key: 7250f50ad3
```

`@part1`


```{r}
juniors_multi %>% 
  gather(key = "key", value = "value", score_1:guess_3)
```
```
# A tibble: 24 x 3
   baker key     value   
   <chr> <chr>   <chr>   
 1 Emma  guess_1 cinnamon
 2 Emma  guess_2 cloves  
 3 Emma  guess_3 nutmeg  
 4 Emma  score_1 1       
 5 Emma  score_2 0       
 6 Emma  score_3 1       
 7 Harry guess_1 cinnamon
 8 Harry guess_2 cardamom
 9 Harry guess_3 nutmeg  
10 Harry score_1 1       
# ... with 14 more rows
```
…
```yaml
type: FullSlide
key: 8b26fa15d2
```

`@part1`

```{r}
juniors_multi %>% 
  gather(key = "key", value = "value", score_1:guess_3) %>% 
  separate(key, into = c("var", "order"), convert = TRUE) 
```
```
# A tibble: 24 x 4
   baker var   order value   
   <chr> <chr> <int> <chr>   
 1 Emma  guess     1 cinnamon
 2 Emma  guess     2 cloves  
 3 Emma  guess     3 nutmeg  
 4 Emma  score     1 1       
 5 Emma  score     2 0       
 6 Emma  score     3 1       
 7 Harry guess     1 cinnamon
 8 Harry guess     2 cardamom
 9 Harry guess     3 nutmeg  
10 Harry score     1 1       
# ... with 14 more rows
…
---
## Before and after spread

```yaml
type: TwoColumns
key: 90d66b094a
```

`@part1`

```
# A tibble: 24 x 4
   baker var   order value   
   <chr> <chr> <int> <chr>   
 1 Emma  guess     1 cinnamon
 2 Emma  guess     2 cloves  
 3 Emma  guess     3 nutmeg  
 4 Emma  score     1 1       
 5 Emma  score     2 0       
 6 Emma  score     3 1       
 7 Harry guess     1 cinnamon
 8 Harry guess     2 cardamom
 9 Harry guess     3 nutmeg  
10 Harry score     1 1       
# ... with 14 more rows
```
…
