…
---
## Know your new variable!

```yaml
type: FullSlide
key: 8ce11a3f87
```

`@part1`

```{r}
bakers
```{{1}}
```
# A tibble: 95 x 3
   baker     birth_year gen      
   <chr>          <dbl> <chr>    
 1 Liam           1998. gen_z    
 2 Martha         1997. gen_z    
 3 Flora          1996. millenial
 4 Michael        1996. millenial
 5 Julia          1996. millenial
 6 Ruby           1993. millenial
 7 Benjamina      1993. millenial
 8 Jason          1992. millenial
 9 James          1991. millenial
10 Andrew         1991. millenial
# ... with 85 more rows
…
